{
  "$schema": "http://json-schema.org/2019-09/schema#",
  "$id": "data_schema.json",
  "type": "object",
  "allOf": [
    {
      "properties": {
        "title": { "type": "string" },
        "x-title": { "type": "string" },
        "x-units": { "type": "string" },
        "y-title": { "type": "string" },
        "y-units": { "type": "string" },
        "errFlag": { "type": "string", "pattern": "^(no|y|xy)err" },
        "fit": {
          "type": "object",
          "properties": {
            "formula": { "type": "string" },
            "parameters": { "type": "array", "minItems": 1, "items": { "type": "number" }},
            "parNames": { "type": "array", "minItems": 1, "items": { "type": "string" }},
            "rangeMin": { "type": "number" },
            "rangeMax": { "type": "number" }
          },
          "required": ["formula", "parameters", "parNames", "rangeMin", "rangeMax"],
          "unevaluatedProperties": false
        },
        "points": {
          "type": "array",
          "minItems": 2,
          "items": {
            "type": "object",
            "properties": {
              "point": { "type": "array", "minItems": 2, "maxItems": 4, "items": { "type": "number" }},
              "use": { "type": "boolean" }
            },
            "required": ["point", "use"],
            "unevaluatedProperties": false
          }
        }
      },
      "required": ["title", "x-title", "x-units", "y-title", "y-units", "errFlag", "fit", "points"]
    }
  ]
}
